{
  "aws_region": "eu-west-1",
  "base_ami": "ami-08660f1c6fb6b01e7",
  "instance_type": "t2.micro",
  "name": "Ubuntu Golden AMI",
  "ssh_username": "ubuntu",
  "tag_name": "Packer Builder",
  "ami_type": "ubuntu_jenkins_ami",
  "vpc_id": "vpc-015a9345db5da6bde",
  "subnet_id": "subnet-0b7a0b8429fc7a79b",
  "kms_key_id": "",
  "aws_access_key": "",
  "aws_secret_key": "",
  "aws_security_token": ""
}