{
	"logs": {
		"logs_collected": {
      "files": {
        "collect_list": [
          {
            "file_path": "c:\\ProgramData\\Amazon\\AmazonCloudWatchAgent\\Logs\\amazon-cloudwatch-agent.log",
            "log_group_name": "solvay-ec1-jenkins-dev",
            "log_stream_name": "{instance_id}"
          }
        ]
      },
			"windows_events": {
				"collect_list": [
					{
						"event_format": "text",
						"event_levels": [
							"VERBOSE",
							"INFORMATION",
							"WARNING",
							"ERROR",
							"CRITICAL"
						],
            "event_name": "System",
						"log_group_name": "solvay-ec1-jenkins-dev",
						"log_stream_name": "{instance_id}"
					}
				]
			}
		}
	},
	"metrics": {
		"metrics_collected": {
			"statsd": {
				"metrics_aggregation_interval": 60,
				"metrics_collection_interval": 60,
				"service_address": ":8125"
			}
		}
	}
}